<?xml version="1.0" standalone="no"?>
<!DOCTYPE svg PUBLIC "-//W3C//DTD SVG 20010904//EN"
 "http://www.w3.org/TR/2001/REC-SVG-20010904/DTD/svg10.dtd">
<svg version="1.0" xmlns="http://www.w3.org/2000/svg"
 width="300.000000pt" height="300.000000pt" viewBox="0 0 300.000000 300.000000"
 preserveAspectRatio="xMidYMid meet">
<metadata>
Created by potrace 1.11, written by Peter Selinger 2001-2013
</metadata>
<g transform="translate(0.000000,300.000000) scale(0.100000,-0.100000)"
fill="#000000" stroke="none">
<path d="M520 2450 l0 -120 95 0 95 0 0 -999 0 -999 78 -9 c42 -4 241 -8 442
-8 302 0 385 3 480 18 171 27 293 62 407 117 130 64 223 151 278 263 128 259
21 526 -267 666 -57 28 -135 59 -174 69 l-71 18 78 28 c153 54 287 164 346
284 25 51 28 67 28 162 0 98 -2 110 -32 170 -36 73 -105 148 -173 188 l-45 27
208 3 207 2 0 120 0 120 -990 0 -990 0 0 -120z m810 -550 l0 -350 -130 0 -130
0 0 339 0 340 53 5 c28 4 79 8 112 9 33 2 68 4 78 5 16 2 17 -21 17 -348z
m450 282 c109 -47 171 -120 190 -223 14 -71 -2 -144 -43 -206 -36 -54 -130
-122 -201 -146 l-46 -16 0 311 0 311 28 -6 c15 -3 47 -14 72 -25z m-450 -1247
l0 -405 -99 0 c-54 0 -113 3 -130 6 l-31 7 0 398 0 399 130 0 130 0 0 -405z
m475 332 c66 -27 143 -77 177 -113 106 -115 111 -299 11 -431 -46 -60 -182
-137 -280 -158 l-33 -7 0 372 0 372 38 -7 c20 -4 60 -16 87 -28z"/>
</g>
</svg>
